{
    "live_branch": {
        "version": "2.12",
        "recommended": "2.13",
        "microServicesVersions": {
            "js-assistant": {
                "version": "1.41.0",
                "alias": "JS_ASSISTANT"
            },
            "eregcms": {
                "version": "1.119.39-6",
                "alias": "DS"
            },
            "casfrontend": {
                "version": "0.0.13",
                "alias": "CAS_FRONTEND"
            },
            "partcbackend": {
                "version": "1.12.0",
                "alias": "PARTC_BACKEND"
            },
            "eregpartc": {
                "version": "0.0.9",
                "alias": "PARTC_FRONTEND"
            },
            "eregbpafrontend": {
                "version": "1.141.7-4",
                "alias": "BPA_FRONTEND"
            },
            "eregbpabackend": {
                "version": "2.41.61-27",
                "alias": "BPA_BACKEND"
            },
            "camunda-boot": {
                "version": "1.7.4",
                "alias": "CAMUNDA"
            },
            "license-registry": {
                "version": "1.115.7-12",
                "alias": "GDB"
            },
            "cashier": {
                "version": "1.3.0",
                "alias": "CASHIER"
            },
            "statistics-backend": {
                "version": "1.70.0",
                "alias": "STATISTICS_BACKEND"
            },
            "statistics-frontend": {
                "version": "0.0.49",
                "alias": "STATISTICS_FRONTEND"
            },
            "chat-authenticator": {
                "version": "1.0.0",
                "alias": "CHAT_AUTHENTICATOR"
            },
            "myaccount": {
                "version": "0.1.0-1",
                "alias": "myaccount"
            },
            "formio-server": {
                "version": "2.0.0-rc.78",
                "alias": "FORMIO"
            },
            "cas-backend": {
                "version": "1.20.0",
                "alias": "CAS_BACKEND"
            },
            "camunda": {
                "version": "1.37.9-11",
                "alias": "CAMUNDA"
            },
            "mule-lesotho": {
                "version": "1.425.0-1",
                "alias": "MULE_SPRING_BOOT"
            },
            "websocket": {
                "version": "1.7.1",
                "alias": "WEBSOCKET"
            },
            "restheart": {
                "version": "6.3.0-10",
                "alias": "RESTHEART"
            },
            "clamav": {
                "version": "1.1.26",
                "alias": "CLAM_AV"
            },
            "activemq": {
                "version": "5.17.2-2",
                "alias": "ACTIVEMQ"
            },
            "publisher": {
                "version": "1.30.0-13",
                "alias": "PUBLISHER"
            },
            "mule": {
                "version": "1.97.0-5",
                "alias": "MULE"
            },
            "graylog": {
                "version": "4.2.8-2",
                "alias": "GRAYLOG"
            }
        }
    },
    "rc_branch": {
        "version": "2.13",
        "recommended": "2.14",
        "microServicesVersions": null
    },
    "beta_branch": {
        "version": "2.14",
        "recommended": "2.15",
        "microServicesVersions": null
    }
}